…
```
## # A tibble: 328 x 9
##    created_at          dt_chr date_chr yr_chr mth_chr day_chr hr_chr
##    <dttm>              <chr>  <chr>    <chr>  <chr>   <chr>   <chr> 
##  1 2020-04-25 22:37:18 2020-… 2020-04… 2020   04      25      22    
##  2 2020-04-23 21:11:49 2020-… 2020-04… 2020   04      23      21    
##  3 2020-04-21 04:00:00 2020-… 2020-04… 2020   04      21      04    
##  4 2020-04-24 03:00:00 2020-… 2020-04… 2020   04      24      03    
##  5 2020-04-20 19:00:21 2020-… 2020-04… 2020   04      20      19    
##  6 2020-04-20 02:20:01 2020-… 2020-04… 2020   04      20      02    
##  7 2020-04-22 04:00:00 2020-… 2020-04… 2020   04      22      04    
##  8 2020-04-25 17:00:00 2020-… 2020-04… 2020   04      25      17    
##  9 2020-04-21 15:13:06 2020-… 2020-04… 2020   04      21      15    
## 10 2020-04-21 17:52:47 2020-… 2020-04… 2020   04      21      17    
## # … with 318 more rows, and 2 more variables: min_chr <chr>, sec_chr <chr>
```
…
<br>
<details><summary>**Example**: Creating `Date` objects from dataframe column</summary>

Using the `p12_datetime_df` we created earlier, we can create `Date` objects from the `date_chr` column:


```r
# Use `ymd()` to parse the string stored in the `date_chr` column
p12_datetime_df %>% select(created_at, dt_chr, date_chr) %>%
  mutate(date_ymd = ymd(date_chr))
```

```
## # A tibble: 328 x 4
##    created_at          dt_chr              date_chr   date_ymd  
##    <dttm>              <chr>               <chr>      <date>    
##  1 2020-04-25 22:37:18 2020-04-25 22:37:18 2020-04-25 2020-04-25
##  2 2020-04-23 21:11:49 2020-04-23 21:11:49 2020-04-23 2020-04-23
##  3 2020-04-21 04:00:00 2020-04-21 04:00:00 2020-04-21 2020-04-21
##  4 2020-04-24 03:00:00 2020-04-24 03:00:00 2020-04-24 2020-04-24
##  5 2020-04-20 19:00:21 2020-04-20 19:00:21 2020-04-20 2020-04-20
##  6 2020-04-20 02:20:01 2020-04-20 02:20:01 2020-04-20 2020-04-20
##  7 2020-04-22 04:00:00 2020-04-22 04:00:00 2020-04-22 2020-04-22
##  8 2020-04-25 17:00:00 2020-04-25 17:00:00 2020-04-25 2020-04-25
##  9 2020-04-21 15:13:06 2020-04-21 15:13:06 2020-04-21 2020-04-21
## 10 2020-04-21 17:52:47 2020-04-21 17:52:47 2020-04-21 2020-04-21
## # … with 318 more rows
```
…
<br>
<details><summary>**Example**: Creating `POSIXct` objects from dataframe column</summary>

Using the `p12_datetime_df` we created earlier, we can recreate the `created_at` column (class `POSIXct`) from the `dt_chr` column (class `character`):


```r
# Use `ymd_hms()` to parse the string stored in the `dt_chr` column
p12_datetime_df %>% select(created_at, dt_chr) %>%
  mutate(datetime_ymd_hms = ymd_hms(dt_chr))
```

```
## # A tibble: 328 x 3
##    created_at          dt_chr              datetime_ymd_hms   
##    <dttm>              <chr>               <dttm>             
##  1 2020-04-25 22:37:18 2020-04-25 22:37:18 2020-04-25 22:37:18
##  2 2020-04-23 21:11:49 2020-04-23 21:11:49 2020-04-23 21:11:49
##  3 2020-04-21 04:00:00 2020-04-21 04:00:00 2020-04-21 04:00:00
##  4 2020-04-24 03:00:00 2020-04-24 03:00:00 2020-04-24 03:00:00
##  5 2020-04-20 19:00:21 2020-04-20 19:00:21 2020-04-20 19:00:21
##  6 2020-04-20 02:20:01 2020-04-20 02:20:01 2020-04-20 02:20:01
##  7 2020-04-22 04:00:00 2020-04-22 04:00:00 2020-04-22 04:00:00
##  8 2020-04-25 17:00:00 2020-04-25 17:00:00 2020-04-25 17:00:00
##  9 2020-04-21 15:13:06 2020-04-21 15:13:06 2020-04-21 15:13:06
## 10 2020-04-21 17:52:47 2020-04-21 17:52:47 2020-04-21 17:52:47
## # … with 318 more rows
```
…
<br>
<details><summary>**Example**: Creating `Date` objects from dataframe columns</summary>

Using the `p12_datetime_df` we created earlier, we can create `Date` objects from the various date component columns:


```r
# Use `make_date()` to create a `Date` object from the `yr_chr`, `mth_chr`, `day_chr` fields
p12_datetime_df %>% select(created_at, dt_chr, yr_chr, mth_chr, day_chr) %>%
  mutate(date_make_date = make_date(yr_chr, mth_chr, day_chr))
```

```
## # A tibble: 328 x 6
##    created_at          dt_chr         yr_chr mth_chr day_chr date_make_date
##    <dttm>              <chr>          <chr>  <chr>   <chr>   <date>        
##  1 2020-04-25 22:37:18 2020-04-25 22… 2020   04      25      2020-04-25    
##  2 2020-04-23 21:11:49 2020-04-23 21… 2020   04      23      2020-04-23    
##  3 2020-04-21 04:00:00 2020-04-21 04… 2020   04      21      2020-04-21    
##  4 2020-04-24 03:00:00 2020-04-24 03… 2020   04      24      2020-04-24    
##  5 2020-04-20 19:00:21 2020-04-20 19… 2020   04      20      2020-04-20    
##  6 2020-04-20 02:20:01 2020-04-20 02… 2020   04      20      2020-04-20    
##  7 2020-04-22 04:00:00 2020-04-22 04… 2020   04      22      2020-04-22    
##  8 2020-04-25 17:00:00 2020-04-25 17… 2020   04      25      2020-04-25    
##  9 2020-04-21 15:13:06 2020-04-21 15… 2020   04      21      2020-04-21    
## 10 2020-04-21 17:52:47 2020-04-21 17… 2020   04      21      2020-04-21    
## # … with 318 more rows
```
…
```r
# Use `make_datetime()` to create a `POSIXct` object from the `yr_chr`, `mth_chr`, `day_chr`, `hr_chr`, `min_chr`, `sec_chr` fields
# Convert inputs to integers first
p12_datetime_df %>%
  mutate(datetime_make_datetime = make_datetime(
    as.integer(yr_chr), as.integer(mth_chr), as.integer(day_chr), 
    as.integer(hr_chr), as.integer(min_chr), as.integer(sec_chr)
  )) %>%
  select(datetime_make_datetime, yr_chr, mth_chr, day_chr, hr_chr, min_chr, sec_chr)
```

```
## # A tibble: 328 x 7
##    datetime_make_datetime yr_chr mth_chr day_chr hr_chr min_chr sec_chr
##    <dttm>                 <chr>  <chr>   <chr>   <chr>  <chr>   <chr>  
##  1 2020-04-25 22:37:18    2020   04      25      22     37      18     
##  2 2020-04-23 21:11:49    2020   04      23      21     11      49     
##  3 2020-04-21 04:00:00    2020   04      21      04     00      00     
##  4 2020-04-24 03:00:00    2020   04      24      03     00      00     
##  5 2020-04-20 19:00:21    2020   04      20      19     00      21     
##  6 2020-04-20 02:20:01    2020   04      20      02     20      01     
##  7 2020-04-22 04:00:00    2020   04      22      04     00      00     
##  8 2020-04-25 17:00:00    2020   04      25      17     00      00     
##  9 2020-04-21 15:13:06    2020   04      21      15     13      06     
## 10 2020-04-21 17:52:47    2020   04      21      17     52      47     
## # … with 318 more rows
```
…
```
## # A tibble: 328 x 8
##    created_at          yr_num mth_num day_num hr_num min_num sec_num ampm 
##    <dttm>               <dbl>   <dbl>   <int>  <int>   <int>   <dbl> <chr>
##  1 2020-04-25 22:37:18   2020       4      25     22      37      18 PM   
##  2 2020-04-23 21:11:49   2020       4      23     21      11      49 PM   
##  3 2020-04-21 04:00:00   2020       4      21      4       0       0 AM   
##  4 2020-04-24 03:00:00   2020       4      24      3       0       0 AM   
##  5 2020-04-20 19:00:21   2020       4      20     19       0      21 PM   
##  6 2020-04-20 02:20:01   2020       4      20      2      20       1 AM   
##  7 2020-04-22 04:00:00   2020       4      22      4       0       0 AM   
##  8 2020-04-25 17:00:00   2020       4      25     17       0       0 PM   
##  9 2020-04-21 15:13:06   2020       4      21     15      13       6 PM   
## 10 2020-04-21 17:52:47   2020       4      21     17      52      47 PM   
## # … with 318 more rows
```
…
Let's create new columns in `p12_df` called `is_am` and `is_pm` that indicates whether or not each tweet's `created_at` time is in the AM or PM, respectively:


```r
p12_df %>%
  mutate(
    # Returns `TRUE` if the hour is 0#, 10, or 11, `FALSE` otherwise
    is_am = str_detect(string = created_at, pattern = " 0\\d| 1[01]"),
    # Recall we can set the `negate` argument to switch the returned `TRUE`/`FALSE`
    is_pm = str_detect(string = created_at, pattern = " 0\\d| 1[01]", negate = TRUE)
  ) %>% select(created_at, is_am, is_pm)
```

```
## # A tibble: 328 x 3
##    created_at          is_am is_pm
##    <dttm>              <lgl> <lgl>
##  1 2020-04-25 22:37:18 FALSE TRUE 
##  2 2020-04-23 21:11:49 FALSE TRUE 
##  3 2020-04-21 04:00:00 TRUE  FALSE
##  4 2020-04-24 03:00:00 TRUE  FALSE
##  5 2020-04-20 19:00:21 FALSE TRUE 
##  6 2020-04-20 02:20:01 TRUE  FALSE
##  7 2020-04-22 04:00:00 TRUE  FALSE
##  8 2020-04-25 17:00:00 FALSE TRUE 
##  9 2020-04-21 15:13:06 FALSE TRUE 
## 10 2020-04-21 17:52:47 FALSE TRUE 
## # … with 318 more rows
```
…
<br>
We can also use the logical vector returned from `str_detect()` to filter `p12_df` to only include rows that had a match:


```r
# Keep only rows whose tweet was created in the AM
p12_df %>%
  filter(str_detect(string = created_at, pattern = " 0\\d| 1[01]"))
```

```
## # A tibble: 53 x 5
##    user_id  created_at          screen_name text                location   
##    <chr>    <dttm>              <chr>       <chr>               <chr>      
##  1 22080148 2020-04-21 04:00:00 WSUPullman  "Darien McLaughlin… Pullman, W…
##  2 22080148 2020-04-24 03:00:00 WSUPullman  6 houses, one pick… Pullman, W…
##  3 22080148 2020-04-20 02:20:01 WSUPullman  Tell us one of you… Pullman, W…
##  4 22080148 2020-04-22 04:00:00 WSUPullman  We loved seeing yo… Pullman, W…
##  5 22080148 2020-04-24 01:58:04 WSUPullman  #WSU agricultural … Pullman, W…
##  6 22080148 2020-04-22 02:22:03 WSUPullman  Nice 👍 https://t.c… Pullman, W…
##  7 15988549 2020-04-20 02:52:31 CalAdmissi… @PaulineARoxas Con… Berkeley, …
##  8 15988549 2020-04-22 03:07:00 CalAdmissi… It’s time to make … Berkeley, …
##  9 15988549 2020-04-22 00:00:08 CalAdmissi… "Are you a #Berkel… Berkeley, …
## 10 15988549 2020-04-20 03:03:21 CalAdmissi… "@N48260756 We sug… Berkeley, …
## # … with 43 more rows
```
…
**[`str_extract()`]** Extract first hashtag:


```r
# Extracts first match of a hashtag (if there is one)
p12_df %>% 
  mutate(
    hashtag = str_extract(string = text, pattern = "#\\S+")
  ) %>% select(text, hashtag)
```

```
## # A tibble: 328 x 2
##    text                                                            hashtag 
##    <chr>                                                           <chr>   
##  1 "Big Dez is headed to Indy!\n\n#GoCougs | #NFLDraft2020 | @dad… #GoCougs
##  2 Cougar Cheese. That's it. That's the tweet. 🧀#WSU #GoCougs htt… #WSU    
##  3 "Darien McLaughlin '19, and her dog, Yuki, went on a #Pullman … #Pullman
##  4 6 houses, one pick. Cougs, which one you got? Reply ⬇️  #WSU #… #WSU    
##  5 Why did you choose to attend @WSUPullman?🤔 #WSU #GoCougs https… #WSU    
##  6 Tell us one of your Bryan Clock Tower memories ⏰ 🐾 #WSU #GoCou… #WSU    
##  7 We loved seeing your top three @WSUPullman buildings, but what… #WSU    
##  8 "Congratulations, graduates! We’re two weeks away from the #WS… #WSU    
##  9 Learn more about this story at https://t.co/45BzKc2rFE. #WSU #… #WSU    
## 10 "Tomorrow, our @WSUEsports Team is facing off against \n@Espor… #GoCoug…
## # … with 318 more rows
```
**[`str_extract_all()`]** Extract all hashtags:


```r
# Extracts all matches of hashtags (if there are any)
p12_df %>% 
  mutate(
    hashtag_vector = str_extract_all(string = text, pattern = "#\\S+"),
    # Use `as.character()` so we can see the content of the character vector of matches
    hashtags = as.character(hashtag_vector)
  ) %>% select(text, hashtag_vector, hashtags)
```

```
## # A tibble: 328 x 3
##    text                             hashtag_vector hashtags                
##    <chr>                            <list>         <chr>                   
##  1 "Big Dez is headed to Indy!\n\n… <chr [3]>      "c(\"#GoCougs\", \"#NFL…
##  2 Cougar Cheese. That's it. That'… <chr [2]>      "c(\"#WSU\", \"#GoCougs…
##  3 "Darien McLaughlin '19, and her… <chr [3]>      "c(\"#Pullman\", \"#Cou…
##  4 6 houses, one pick. Cougs, whic… <chr [3]>      "c(\"#WSU\", \"#CougsCo…
##  5 Why did you choose to attend @W… <chr [2]>      "c(\"#WSU\", \"#GoCougs…
##  6 Tell us one of your Bryan Clock… <chr [2]>      "c(\"#WSU\", \"#GoCougs…
##  7 We loved seeing your top three … <chr [2]>      "c(\"#WSU\", \"#GoCougs…
##  8 "Congratulations, graduates! We… <chr [3]>      "c(\"#WSU\", \"#CougGra…
##  9 Learn more about this story at … <chr [2]>      "c(\"#WSU\", \"#GoCougs…
## 10 "Tomorrow, our @WSUEsports Team… <chr [1]>      #GoCougs!               
## # … with 318 more rows
```
…
```r
datetime_regex <- "([\\d-]+) ([\\d:]+)"
p12_df %>%
  mutate(
    # The 1st capturing group will be in the 2nd column of the matrix returned from `str_match()`
    date = str_match(string = created_at, pattern = datetime_regex)[, 2],
    # The 2nd capturing group will be in the 3rd column of the matrix returned from `str_match()`
    time = str_match(string = created_at, pattern = datetime_regex)[, 3]
  ) %>% select(created_at, date, time)
```

```
## # A tibble: 328 x 3
##    created_at          date       time    
##    <dttm>              <chr>      <chr>   
##  1 2020-04-25 22:37:18 2020-04-25 22:37:18
##  2 2020-04-23 21:11:49 2020-04-23 21:11:49
##  3 2020-04-21 04:00:00 2020-04-21 04:00:00
##  4 2020-04-24 03:00:00 2020-04-24 03:00:00
##  5 2020-04-20 19:00:21 2020-04-20 19:00:21
##  6 2020-04-20 02:20:01 2020-04-20 02:20:01
##  7 2020-04-22 04:00:00 2020-04-22 04:00:00
##  8 2020-04-25 17:00:00 2020-04-25 17:00:00
##  9 2020-04-21 15:13:06 2020-04-21 15:13:06
## 10 2020-04-21 17:52:47 2020-04-21 17:52:47
## # … with 318 more rows
```
…
<br>
<details><summary>**Example**: Using `str_replace_all()` on dataframe column</summary>


```r
p12_df %>%
  mutate(
    # Replace all hashtags and handles from tweet with an empty string
    removed_hashtags_handles = str_replace_all(string = text, pattern = "[@#]\\S+", replacement = "")
  ) %>% select(text, removed_hashtags_handles)
```

```
## # A tibble: 328 x 2
##    text                              removed_hashtags_handles              
##    <chr>                             <chr>                                 
##  1 "Big Dez is headed to Indy!\n\n#… "Big Dez is headed to Indy!\n\n |  | …
##  2 Cougar Cheese. That's it. That's… Cougar Cheese. That's it. That's the …
##  3 "Darien McLaughlin '19, and her … "Darien McLaughlin '19, and her dog, …
##  4 6 houses, one pick. Cougs, which… 6 houses, one pick. Cougs, which one …
##  5 Why did you choose to attend @WS… Why did you choose to attend    https…
##  6 Tell us one of your Bryan Clock … Tell us one of your Bryan Clock Tower…
##  7 We loved seeing your top three @… We loved seeing your top three  build…
##  8 "Congratulations, graduates! We’… "Congratulations, graduates! We’re tw…
##  9 Learn more about this story at h… "Learn more about this story at https…
## 10 "Tomorrow, our @WSUEsports Team … "Tomorrow, our  Team is facing off ag…
## # … with 318 more rows
```
…
When we split the `created_at` field at either a hyphen or space, we can separated out the year, month, day, and time components of the string:


```r
p12_df %>%
  mutate(
    # Use `as.character()` so we can see the content of the character vector of splitted strings
    year_month_day_time = as.character(str_split(string = created_at, pattern = "[- ]"))
  ) %>% select(created_at, year_month_day_time)
```

```
## # A tibble: 328 x 2
##    created_at          year_month_day_time                        
##    <dttm>              <chr>                                      
##  1 2020-04-25 22:37:18 "c(\"2020\", \"04\", \"25\", \"22:37:18\")"
##  2 2020-04-23 21:11:49 "c(\"2020\", \"04\", \"23\", \"21:11:49\")"
##  3 2020-04-21 04:00:00 "c(\"2020\", \"04\", \"21\", \"04:00:00\")"
##  4 2020-04-24 03:00:00 "c(\"2020\", \"04\", \"24\", \"03:00:00\")"
##  5 2020-04-20 19:00:21 "c(\"2020\", \"04\", \"20\", \"19:00:21\")"
##  6 2020-04-20 02:20:01 "c(\"2020\", \"04\", \"20\", \"02:20:01\")"
##  7 2020-04-22 04:00:00 "c(\"2020\", \"04\", \"22\", \"04:00:00\")"
##  8 2020-04-25 17:00:00 "c(\"2020\", \"04\", \"25\", \"17:00:00\")"
##  9 2020-04-21 15:13:06 "c(\"2020\", \"04\", \"21\", \"15:13:06\")"
## 10 2020-04-21 17:52:47 "c(\"2020\", \"04\", \"21\", \"17:52:47\")"
## # … with 318 more rows
```
…
<br>
<details><summary>**Example**: Using `str_count()` on dataframe column</summary>


```r
p12_df %>%
  mutate(
    # Counts the total number of hashtags and mentions
    num_hashtags_and_mentions = str_count(string = text, pattern = "[@#]\\S+")
  ) %>% select(text, num_hashtags_and_mentions)
```

```
## # A tibble: 328 x 2
##    text                                               num_hashtags_and_men…
##    <chr>                                                              <int>
##  1 "Big Dez is headed to Indy!\n\n#GoCougs | #NFLDra…                     5
##  2 Cougar Cheese. That's it. That's the tweet. 🧀#WSU…                     2
##  3 "Darien McLaughlin '19, and her dog, Yuki, went o…                     4
##  4 6 houses, one pick. Cougs, which one you got? Rep…                     3
##  5 Why did you choose to attend @WSUPullman?🤔 #WSU #…                     3
##  6 Tell us one of your Bryan Clock Tower memories ⏰ …                     2
##  7 We loved seeing your top three @WSUPullman buildi…                     3
##  8 "Congratulations, graduates! We’re two weeks away…                     3
##  9 Learn more about this story at https://t.co/45BzK…                     2
## 10 "Tomorrow, our @WSUEsports Team is facing off aga…                     5
## # … with 318 more rows
```
…
```r
p12_df %>%
  mutate(
    # Start position of first hashtag in tweet (ie. 1st column of matrix returned from `str_locate()`)
    start_of_first_hashtag = str_locate(string = text, pattern = "#\\S+")[, 1],
    # End position of first hashtag in tweet (ie. 2nd column of matrix returned from `str_locate()`)
    end_of_first_hashtag = str_locate(string = text, pattern = "#\\S+")[, 2],
    # Length of first hashtag in tweet (ie. difference between start and end positions)
    length_of_first_hashtag = end_of_first_hashtag - start_of_first_hashtag
  ) %>% select(text, start_of_first_hashtag, end_of_first_hashtag, length_of_first_hashtag)
```

```
## # A tibble: 328 x 4
##    text               start_of_first_ha… end_of_first_ha… length_of_first_…
##    <chr>                           <int>            <int>             <int>
##  1 "Big Dez is heade…                 29               36                 7
##  2 Cougar Cheese. Th…                 46               49                 3
##  3 "Darien McLaughli…                 53               60                 7
##  4 6 houses, one pic…                 57               60                 3
##  5 Why did you choos…                 44               47                 3
##  6 Tell us one of yo…                 52               55                 3
##  7 We loved seeing y…                144              147                 3
##  8 "Congratulations,…                 59               62                 3
##  9 Learn more about …                 57               60                 3
## 10 "Tomorrow, our @W…                266              274                 8
## # … with 318 more rows
```
…
