…
#### `num_negative()` function

__Your task for student exercise__: The `num_negative` function

- Write a function that counts the number of observations with negative values for a specific variable
- Apply this function to variables from dataframe `df` (created below)
- Adapted from Ben Skinner's _programming 1_ R Workshop [HERE](https://www.btskinner.me/rworkshop/modules/programming_one.html)


Create a sample dataset `df` that contains some negative values

- code omitted; don't worry about understanding this code

```
#> # A tibble: 100 x 4
#>       id   age sibage parage
#>    <int> <dbl>  <dbl>  <dbl>
#>  1     1    17      8     49
#>  2     2    15    -97     46
#>  3     3   -97    -97     53
#>  4     4    13     12     -4
#>  5     5   -97     10     47
#>  6     6    12     10     52
#>  7     7   -99      5     51
#>  8     8   -97     10     55
#>  9     9    16      6     51
#> 10    10    16    -99     -8
#> # ... with 90 more rows
```
…
