…
```
## # A tibble: 1 x 1
##       n
##   <int>
## 1   247
```

```r
df_school[]
```

```
## # A tibble: 21,301 x 26
##    state_code school_type ncessch name  address city  zip_code pct_white
##    <chr>      <chr>       <chr>   <chr> <chr>   <chr> <chr>        <dbl>
##  1 AK         public      020000~ Beth~ 1006 R~ Beth~ 99559       11.8  
##  2 AK         public      020000~ Ayag~ 106 Vi~ Kong~ 99559        0    
##  3 AK         public      020000~ Kwig~ 108 Vi~ Kwig~ 99622        0    
##  4 AK         public      020000~ Nels~ 118 Vi~ Toks~ 99637        0    
##  5 AK         public      020000~ Alak~ 9 Scho~ Alak~ 99554        2.52 
##  6 AK         public      020000~ Emmo~ Genera~ Emmo~ 99581        0    
##  7 AK         public      020000~ Hoop~ Genera~ Hoop~ 99604        0    
##  8 AK         public      020000~ Igna~ 100 Hi~ Moun~ 99632        0    
##  9 AK         public      020000~ Pilo~ 5090 S~ Pilo~ 99650        0.559
## 10 AK         public      020000~ Kotl~ 20129 ~ Kotl~ 99620        0.538
## # ... with 21,291 more rows, and 18 more variables: pct_black <dbl>,
## #   pct_hispanic <dbl>, pct_asian <dbl>, pct_amerindian <dbl>, pct_other <dbl>,
## #   num_fr_lunch <dbl>, total_students <dbl>, num_took_math <dbl>,
## #   num_prof_math <dbl>, num_took_rla <dbl>, num_prof_rla <dbl>,
## #   avgmedian_inc_2564 <dbl>, visits_by_110635 <int>, visits_by_126614 <int>,
## #   visits_by_100751 <int>, inst_110635 <chr>, inst_126614 <chr>,
## #   inst_100751 <chr>
```
…
